id,name,model_id:id,group_id:id,perm_read,perm_write,perm_create,perm_unlink
access_sale_order_department, sale.order.department,sale.model_sale_order,nano_sale.group_credit_department,1,0,0,0
access_sale_order_line_department, sale.order.line.department,sale.model_sale_order_line,nano_sale.group_credit_department,1,0,0,0



