id,name,model_id:id,group_id:id,perm_read,perm_write,perm_create,perm_unlink
access_survey_user_input_user,access survey user input user,survey.model_survey_user_input,base.group_user,1,1,0,0
access_survey_user_input_ceo,access survey user input ceo,survey.model_survey_user_input,nano_hr_recruitment.ceo,1,1,1,1
access_survey_user_input_safety,access survey user input safety,survey.model_survey_user_input,nano_hr_appraisal.safety,1,1,1,1
access_survey_user_input_manager,access survey user input manager,survey.model_survey_user_input,hr.group_hr_manager,1,1,1,1

access_survey_user_input_line_user,access survey user input line user,survey.model_survey_user_input_line,base.group_user,1,1,0,0
access_survey_user_input_line_ceo,access survey user input line ceo,survey.model_survey_user_input_line,nano_hr_recruitment.ceo,1,1,1,1
access_survey_user_input_line_safety,access survey user input line safety,survey.model_survey_user_input_line,nano_hr_appraisal.safety,1,1,1,1
access_survey_user_input_line_manager,access survey user input line manager,survey.model_survey_user_input_line,hr.group_hr_manager,1,1,1,1

access_nano_hr_appraisal_leave_types_hr,access nano hr appraisal leave types hr,model_nano_hr_appraisal_leave_types,hr.group_hr_user,1,1,1,1
access_nano_hr_appraisal_leave_types_manager,access nano hr appraisal leave types manager,model_nano_hr_appraisal_leave_types,hr.group_hr_manager,1,1,1,1
