id,name,model_id:id,group_id:id,perm_read,perm_write,perm_create,perm_unlink
access_over_time,access over time,model_over_time,hr.group_hr_user,1,1,1,1
access_shift_allowance,access shift allowance,model_shift_allowance,hr.group_hr_user,1,1,1,1
access_meal_allowance,access meal allowance,model_meal_allowance,hr.group_hr_user,1,1,1,1
access_day_or_official_vacations,access day or official vacations,model_day_or_official_vacations,hr.group_hr_user,1,1,1,1
access_bonus_subsidy,access bonus subsidy,model_bonus_subsidy,hr.group_hr_user,1,1,1,1
access_day_or_official_vacations_work_order,access day or official vacations work order,model_day_or_official_vacations_work_order,hr.group_hr_user,1,1,1,1
access_permeation_request,access permeation request,model_permeation_request,hr.group_hr_user,1,1,1,1
access_allowance_variable,access allowance variable,model_allowance_variable,hr.group_hr_user,1,1,1,1
access_allowance_insurance_application,access allowance insurance application,model_allowance_insurance_application,hr.group_hr_user,1,1,1,1
access_transfer_promotion,access transfer promotion,model_transfer_promotion,hr.group_hr_user,1,1,1,1

access_over_time_manager,access over time manager,model_over_time,hr.group_hr_manager,1,1,1,1
access_day_or_official_vacations_work_order_manager,access day or official vacations work order manager,model_day_or_official_vacations_work_order,hr.group_hr_manager,1,1,1,1

access_over_time_accountant,access over time accountant,model_over_time,account.group_account_user,1,1,1,1
access_over_time_accountant_manager,access over time accountant manager,model_over_time,account.group_account_manager,1,1,1,1

access_over_time_base,access over time base,model_over_time,base.group_user,1,1,1,1
access_day_or_official_vacations__work_order_base,access day or official vacations work order base,model_day_or_official_vacations_work_order,base.group_user,1,1,1,0
access_permeation_request_base,access permeation request base,model_permeation_request,base.group_user,1,1,1,0
access_transfer_promotion_base,access transfer_promotion base,model_transfer_promotion,base.group_user,1,1,1,1
access_hr_contract_base,access hr contract base,hr_contract.model_hr_contract,base.group_user,1,1,1,0
