id,name,model_id:id,group_id:id,perm_read,perm_write,perm_create,perm_unlink
access_maintainance_request_warehouse_manager,maintainance_request,model_maintainance_request,stock.group_stock_manager,0,0,0,0
access_maintainance_request_warehouse_user,maintainance_request,model_maintainance_request,stock.group_stock_user,0,0,0,0
access_maintainance_request_logistic,maintainance_request,model_maintainance_request,nano_plan.module_category_logistic_management,1,1,1,1
access_maintainance_request_lg_manager,maintainance_request,model_maintainance_request,nano_plan.group_logistic_manager,1,1,1,1
access_maintainance_request_custom,maintainance_request,model_maintainance_request,nano_plan.module_category_custom_management,0,0,0,0
access_maintainance_request_cus_manager,maintainance_request,model_maintainance_request,nano_plan.group_custom_manager,0,0,0,0
access_maintainance_request_equipment_manager,maintainance_request,model_maintainance_request,nano_plan.equipment_request_manager,1,1,1,1

access_logistic_sale_line_warehouse_manager,logistic_sale_line,model_logistic_sale_line,stock.group_stock_manager,0,0,0,0
access_logistic_sale_line_warehouse_user,logistic_sale_line,model_logistic_sale_line,stock.group_stock_user,0,0,0,0
access_logistic_sale_line_logistic,logistic_sale_line,model_logistic_sale_line,nano_plan.module_category_logistic_management,1,1,1,1
access_logistic_sale_line_lg_manager,logistic_sale_line,model_logistic_sale_line,nano_plan.group_logistic_manager,1,1,1,1
access_logistic_sale_line_custom,logistic_sale_line,model_logistic_sale_line,nano_plan.module_category_custom_management,0,0,0,0
access_logistic_sale_line_cus_manager,logistic_sale_line,model_logistic_sale_line,nano_plan.group_custom_manager,0,0,0,0
access_logistic_sale_line_equipment_manager,logistic_sale_line,model_logistic_sale_line,nano_plan.equipment_request_manager,1,1,1,1

access_logistic_purchase_line_warehouse_manager,logistic_purchase_line,model_logistic_purchase_line,stock.group_stock_manager,0,0,0,0
access_logistic_purchase_line_warehouse_user,logistic_purchase_line,model_logistic_purchase_line,stock.group_stock_user,0,0,0,0
access_logistic_purchase_line_logistic,logistic_purchase_line,model_logistic_purchase_line,nano_plan.module_category_logistic_management,1,1,1,1
access_logistic_purchase_line_lg_manager,logistic_purchase_line,model_logistic_purchase_line,nano_plan.group_logistic_manager,1,1,1,1
access_logistic_purchase_line_custom,logistic_purchase_line,model_logistic_purchase_line,nano_plan.module_category_custom_management,0,0,0,0
access_logistic_purchase_line_cus_manager,logistic_purchase_line,model_logistic_purchase_line,nano_plan.group_custom_manager,0,0,0,0
access_logistic_purchase_line_equipment_manager,logistic_purchase_line,model_logistic_purchase_line,nano_plan.equipment_request_manager,1,1,1,1

access_logistic_package_line_warehouse_manager,logistic_package_line,model_logistic_package_line,stock.group_stock_manager,0,0,0,0
access_logistic_package_line_warehouse_user,logistic_package_line,model_logistic_package_line,stock.group_stock_user,0,0,0,0
access_logistic_package_line_logistic,logistic_package_line,model_logistic_package_line,nano_plan.module_category_logistic_management,1,1,1,1
access_logistic_package_line_lg_manager,logistic_package_line,model_logistic_package_line,nano_plan.group_logistic_manager,1,1,1,1
access_logistic_package_line_custom,logistic_package_line,model_logistic_package_line,nano_plan.module_category_custom_management,0,0,0,0
access_logistic_package_line_cus_manager,logistic_package_line,model_logistic_package_line,nano_plan.group_custom_manager,0,0,0,0
access_logistic_package_line_equipment_manager,logistic_package_line,model_logistic_package_line,nano_plan.equipment_request_manager,1,1,1,1

access_equipment_request_warehouse_manager,equipment_request,model_equipment_request,stock.group_stock_manager,0,0,0,0
access_equipment_request_warehouse_user,equipment_request,model_equipment_request,stock.group_stock_user,0,0,0,0
access_equipment_request_logistic,equipment_request,model_equipment_request,nano_plan.module_category_logistic_management,1,1,1,1
access_equipment_request_lg_manager,equipment_request,model_equipment_request,nano_plan.group_logistic_manager,1,1,1,1
access_equipment_request_custom,equipment_request,model_equipment_request,nano_plan.module_category_custom_management,0,0,0,0
access_equipment_request_cus_manager,equipment_request,model_equipment_request,nano_plan.group_custom_manager,0,0,0,0
access_equipment_request_equipment_manager,equipment_request,model_equipment_request,nano_plan.equipment_request_manager,1,1,1,1

access_equipment_request_line_warehouse_manager,equipment_request_line,model_equipment_request_line,stock.group_stock_manager,0,0,0,0
access_equipment_request_line_warehouse_user,equipment_request_line,model_equipment_request_line,stock.group_stock_user,0,0,0,0
access_equipment_request_line_logistic,equipment_request_line,model_equipment_request_line,nano_plan.module_category_logistic_management,1,1,1,1
access_equipment_request_line_lg_manager,equipment_request_line,model_equipment_request_line,nano_plan.group_logistic_manager,1,1,1,1
access_equipment_request_line_custom,equipment_request_line,model_equipment_request_line,nano_plan.module_category_custom_management,0,0,0,0
access_equipment_request_line_cus_manager,equipment_request_line,model_equipment_request_line,nano_plan.group_custom_manager,0,0,0,0
access_equipment_request_line_equipment_manager,equipment_request_line,model_equipment_request_line,nano_plan.equipment_request_manager,1,1,1,1

access_purchase_request_line_warehouse_manager,purchase_request_line,model_purchase_request_line,stock.group_stock_manager,0,0,0,0
access_purchase_request_line_warehouse_user,purchase_request_line,model_purchase_request_line,stock.group_stock_user,0,0,0,0
access_purchase_request_line_logistic,purchase_request_line,model_purchase_request_line,nano_plan.module_category_logistic_management,1,1,1,1
access_purchase_request_line_lg_manager,purchase_request_line,model_purchase_request_line,nano_plan.group_logistic_manager,1,1,1,1
access_purchase_request_line_custom,purchase_request_line,model_purchase_request_line,nano_plan.module_category_custom_management,0,0,0,0
access_purchase_request_line_cus_manager,purchase_request_line,model_purchase_request_line,nano_plan.group_custom_manager,0,0,0,0
access_purchase_request_line_equipment_manager,purchase_request_line,model_purchase_request_line,nano_plan.equipment_request_manager,1,1,1,1

access_package_request_line_warehouse_manager,package_request_line,model_package_request_line,stock.group_stock_manager,0,0,0,0
access_package_request_line_warehouse_user,package_request_line,model_package_request_line,stock.group_stock_user,0,0,0,0
access_package_request_line_logistic,package_request_line,model_package_request_line,nano_plan.module_category_logistic_management,1,1,1,1
access_package_request_line_lg_manager,package_request_line,model_package_request_line,nano_plan.group_logistic_manager,1,1,1,1
access_package_request_line_custom,package_request_line,model_package_request_line,nano_plan.module_category_custom_management,0,0,0,0
access_package_request_line_cus_manager,package_request_line,model_package_request_line,nano_plan.group_custom_manager,0,0,0,0
access_package_request_line_equipment_manager,package_request_line,model_package_request_line,nano_plan.equipment_request_manager,1,1,1,1

access_warehouse_request_warehouse_manager,warehouse_request,model_warehouse_request,stock.group_stock_manager,1,1,1,1
access_warehouse_request_warehouse_user,warehouse_request,model_warehouse_request,stock.group_stock_user,1,1,1,1
access_warehouse_request_logistic,warehouse_request,model_warehouse_request,nano_plan.module_category_logistic_management,1,0,0,0
access_warehouse_request_lg_manager,warehouse_request,model_warehouse_request,nano_plan.group_logistic_manager,1,0,0,0
access_warehouse_request_custom,warehouse_request,model_warehouse_request,nano_plan.module_category_custom_management,0,0,0,0
access_warehouse_request_equipment_manager,warehouse_request,model_warehouse_request,nano_plan.equipment_request_manager,1,1,1,1

access_warehouse_request_line_warehouse_manager,warehouse_request_line,model_warehouse_request_line,stock.group_stock_manager,1,1,1,1
access_warehouse_request_line_warehouse_user,warehouse_request_line,model_warehouse_request_line,stock.group_stock_user,1,1,1,1
access_warehouse_request_line_logistic,warehouse_request_line,model_warehouse_request_line,nano_plan.module_category_logistic_management,1,0,0,0
access_warehouse_request_line_lg_manager,warehouse_request_line,model_warehouse_request_line,nano_plan.group_logistic_manager,1,0,0,0
access_warehouse_request_line_custom,warehouse_request_line,model_warehouse_request_line,nano_plan.module_category_custom_management,0,0,0,0
access_warehouse_request_line_cus_manager,warehouse_request_line,model_warehouse_request_line,nano_plan.group_custom_manager,0,0,0,0
access_warehouse_request_line_equipment_manager,warehouse_request_line,model_warehouse_request_line,nano_plan.equipment_request_manager,1,1,1,1

access_warehouse_equipment_request_warehouse_manager,warehouse_equipment_request,model_warehouse_equipment_request,stock.group_stock_manager,1,1,1,1
access_warehouse_equipment_request_warehouse_user,warehouse_equipment_request,model_warehouse_equipment_request,stock.group_stock_user,1,1,1,1
access_warehouse_equipment_request_logistic,warehouse_equipment_request,model_warehouse_equipment_request,nano_plan.module_category_logistic_management,1,0,0,0
access_warehouse_equipment_request_lg_manager,warehouse_equipment_request,model_warehouse_equipment_request,nano_plan.group_logistic_manager,1,0,0,0
access_warehouse_equipment_request_custom,warehouse_equipment_request,model_warehouse_equipment_request,nano_plan.module_category_custom_management,0,0,0,0
access_warehouse_equipment_request_cus_manager,warehouse_equipment_request,model_warehouse_equipment_request,nano_plan.group_custom_manager,0,0,0,0
access_warehouse_equipment_request_equipment_manager,warehouse_equipment_request,model_warehouse_equipment_request,nano_plan.equipment_request_manager,1,1,1,1

access_warehouse_equipment_line_warehouse_manager,warehouse_equipment_line,model_warehouse_equipment_line,stock.group_stock_manager,1,1,1,1
access_warehouse_equipment_line_warehouse_user,warehouse_equipment_line,model_warehouse_equipment_line,stock.group_stock_user,1,1,1,1
access_warehouse_equipment_line_logistic,warehouse_equipment_line,model_warehouse_equipment_line,nano_plan.module_category_logistic_management,1,0,0,0
access_warehouse_equipment_line_lg_manager,warehouse_equipment_line,model_warehouse_equipment_line,nano_plan.group_logistic_manager,1,0,0,0
access_warehouse_equipment_line_custom,warehouse_equipment_line,model_warehouse_equipment_line,nano_plan.module_category_custom_management,0,0,0,0
access_warehouse_equipment_line_cus_manager,warehouse_equipment_line,model_warehouse_equipment_line,nano_plan.group_custom_manager,0,0,0,0
access_warehouse_equipment_line_equipment_manager,warehouse_equipment_line,model_warehouse_equipment_line,nano_plan.equipment_request_manager,1,1,1,1

access_manufacturing_equipment_warehouse_manager,manufacturing_equipment,model_manufacturing_equipment,stock.group_stock_manager,1,1,1,1
access_manufacturing_equipment_warehouse_user,manufacturing_equipment,model_manufacturing_equipment,stock.group_stock_user,1,1,1,1
access_manufacturing_equipment_logistic,manufacturing_equipment,model_manufacturing_equipment,nano_plan.module_category_logistic_management,1,0,0,0
access_manufacturing_equipment_lg_manager,manufacturing_equipment,model_manufacturing_equipment,nano_plan.group_logistic_manager,1,0,0,0
access_manufacturing_equipment_custom,manufacturing_equipment,model_manufacturing_equipment,nano_plan.module_category_custom_management,1,1,1,1
access_manufacturing_equipment_cus_manager,manufacturing_equipment,model_manufacturing_equipment,nano_plan.group_custom_manager,1,1,1,1
access_manufacturing_equipment_equipment_manager,manufacturing_equipment,model_manufacturing_equipment,nano_plan.equipment_request_manager,1,1,1,1

access_manufacturing_request_line_warehouse_manager,manufacturing_request_line,model_manufacturing_request_line,stock.group_stock_manager,1,1,1,1
access_manufacturing_request_line_warehouse_user,manufacturing_request_line,model_manufacturing_request_line,stock.group_stock_user,1,1,1,1
access_manufacturing_request_line_logistic,manufacturing_request_line,model_manufacturing_request_line,nano_plan.module_category_logistic_management,1,0,0,0
access_manufacturing_request_line_lg_manager,manufacturing_request_line,model_manufacturing_request_line,nano_plan.group_logistic_manager,1,0,0,0
access_manufacturing_request_line_custom,manufacturing_request_line,model_manufacturing_request_line,nano_plan.module_category_custom_management,1,1,1,1
access_manufacturing_request_line_cus_manager,manufacturing_request_line,model_manufacturing_request_line,nano_plan.group_custom_manager,1,1,1,1
access_manufacturing_request_line_equipment_manager,manufacturing_request_line,model_manufacturing_request_line,nano_plan.equipment_request_manager,1,1,1,1

access_manufacturing_equipment_request_warehouse_manager,manufacturing_equipment_request,model_manufacturing_equipment_request,stock.group_stock_manager,1,1,1,1
access_manufacturing_equipment_request_warehouse_user,manufacturing_equipment_request,model_manufacturing_equipment_request,stock.group_stock_user,1,1,1,1
access_manufacturing_equipment_request_logistic,manufacturing_equipment_request,model_manufacturing_equipment_request,nano_plan.module_category_logistic_management,1,0,0,0
access_manufacturing_equipment_request_lg_manager,manufacturing_equipment_request,model_manufacturing_equipment_request,nano_plan.group_logistic_manager,1,0,0,0
access_manufacturing_equipment_request_custom,manufacturing_equipment_request,model_manufacturing_equipment_request,nano_plan.module_category_custom_management,1,1,1,1
access_manufacturing_equipment_request_cus_manager,manufacturing_equipment_request,model_manufacturing_equipment_request,nano_plan.group_custom_manager,1,1,1,1
access_manufacturing_equipment_request_equipment_manager,manufacturing_equipment_request,model_manufacturing_equipment_request,nano_plan.equipment_request_manager,1,1,1,1

access_manufacturing_equipment_line_warehouse_manager,manufacturing_equipment_line,model_manufacturing_equipment_line,stock.group_stock_manager,1,1,1,1
access_manufacturing_equipment_line_warehouse_user,manufacturing_equipment_line,model_manufacturing_equipment_line,stock.group_stock_user,1,1,1,1
access_manufacturing_equipment_line_logistic,manufacturing_equipment_line,model_manufacturing_equipment_line,nano_plan.module_category_logistic_management,1,0,0,0
access_manufacturing_equipment_line_lg_manager,manufacturing_equipment_line,model_manufacturing_equipment_line,nano_plan.group_logistic_manager,1,0,0,0
access_manufacturing_equipment_line_custom,manufacturing_equipment_line,model_manufacturing_equipment_line,nano_plan.module_category_custom_management,1,1,1,1
access_manufacturing_equipment_line_cus_manager,manufacturing_equipment_line,model_manufacturing_equipment_line,nano_plan.group_custom_manager,1,1,1,1
access_manufacturing_equipment_line_equipment_manager,manufacturing_equipment_line,model_manufacturing_equipment_line,nano_plan.equipment_request_manager,1,1,1,1

access_timer_equipment_line_warehouse_manager,timer_equipment_line,model_timer_equipment_line,stock.group_stock_manager,1,1,1,1
access_timer_equipment_line_warehouse_user,timer_equipment_line,model_timer_equipment_line,stock.group_stock_user,1,1,1,1
access_timer_equipment_line_logistic,timer_equipment_line,model_timer_equipment_line,nano_plan.module_category_logistic_management,1,0,0,0
access_timer_equipment_line_lg_manager,timer_equipment_line,model_timer_equipment_line,nano_plan.group_logistic_manager,1,0,0,0
access_timer_equipment_line_custom,timer_equipment_line,model_timer_equipment_line,nano_plan.module_category_custom_management,1,1,1,1
access_timer_equipment_line_cus_manager,timer_equipment_line,model_timer_equipment_line,nano_plan.group_custom_manager,1,1,1,1
access_timer_equipment_line_equipment_manager,timer_equipment_line,model_timer_equipment_line,nano_plan.equipment_request_manager,1,1,1,1


access_equipment_request_logistic,equipment_request,model_equipment_request,nano_plan.module_category_logistic_management,1,1,1,1
access_equipment_request_line_logistic,equipment_request_line,model_equipment_request_line,nano_plan.module_category_logistic_management,1,1,1,1
access_purchase_request_line_logistic,purchase_request_line,model_purchase_request_line,nano_plan.module_category_logistic_management,1,1,1,1
access_package_request_line_logistic,package_request_line,model_package_request_line,nano_plan.module_category_logistic_management,1,1,1,1
access_maintainance_request_logistic,maintainance_request,model_maintainance_request,nano_plan.module_category_logistic_management,1,1,1,1
access_logistic_sale_line_logistic,logistic_sale_line,model_logistic_sale_line,nano_plan.module_category_logistic_management,1,1,1,1
access_logistic_package_line_logistic,logistic_package_line,model_logistic_package_line,nano_plan.module_category_logistic_management,1,1,1,1
access_logistic_purchase_line_logistic,logistic_purchase_line,model_logistic_purchase_line,nano_plan.module_category_logistic_management,1,1,1,1
